…
---

    Code
      calculate_mme(x = output)
    Condition
      Error in `calculate_mme.list()`:
      ! argument "therapy_days" is missing, with no default

# Custom column names are handled correctly

    Code
      result
    Output
      $medications
      # A tibble: 235 x 12
         subject_id med_name         dosage doses_daily duration_days therapy_duration
         <chr>      <chr>             <dbl>       <dbl>         <dbl>            <dbl>
       1 P001       Fentanyl patch ~   12.5           1             7                7
       2 P001       tramadol (mg) LA  125             1            30               30
       3 P002       Hydrocodone (mg)   10             3            14               14
       4 P002       tramadol (mg)      60             3            14               14
       5 P003       Meperidine HCL ~   50             4             7                7
       6 P003       tramadol (mg)      90             3             7                7
       7 P003       Opium (mg)         40             3            14               14
       8 P003       Hydrocodone (mg)    5             2             3                3
       9 P004       Hydrocodone (mg)   10             3             7                7
      10 P005       Codeine (mg)       45             1             7                7
      # i 225 more rows
      # i 6 more variables: observation_period <dbl>, therapy_wo_bup <dbl>,
      #   observation_wo_bup <dbl>, factor <dbl>, mme <dbl>, single_day_mme <dbl>
…
